id,client_project_id,jobcode,created_at,updated_at,deleted_at
1,27,Anywhere.com,\N,\N,\N
2,21,Atonix,\N,\N,\N
3,41,Bluescope Buildings NA,\N,\N,\N
4,31,Bold Marketing LLC,\N,\N,\N
5,49,Bruben Enterprises LLC,\N,\N,\N
6,25,Companion Protect,\N,\N,\N
7,15,Dealer Teamwork,\N,\N,\N
8,23,DivvyHQ,\N,\N,\N
9,32,Employee DB Project,\N,\N,\N
10,34,Full Scale,\N,\N,\N
11,34,Full Scale Design,\N,\N,\N
12,12,Gigabook,\N,\N,\N
13,11,H3,\N,\N,\N
14,43,High School eSports,\N,\N,\N
15,13,Homebase,\N,\N,\N
16,22,Initech Solutions,\N,\N,\N
17,28,League Ally,\N,\N,\N
18,44,Lotpop,\N,\N,\N
19,24,Marknology,\N,\N,\N
20,48,McAllister Group,\N,\N,\N
21,38,Mixtape,\N,\N,\N
22,51,Mycroft,\N,\N,\N
23,10,OneHQ,\N,\N,\N
24,50,SaveOnBranson,\N,\N,\N
25,19,Screen Steps,\N,\N,\N
26,4,Stackify,\N,\N,\N
27,26,Stenovate,\N,\N,\N
28,34,Thirsty Coconut,\N,\N,\N
29,45,TicketBoat,\N,\N,\N
30,14,Urban Necessities,\N,\N,\N
31,29,Virtual Summit,\N,\N,\N
32,18,Wicket,\N,\N,\N
