Job Title,Type
President,5
Managing Director,5
Director for Operations,5
Operation Manager,3
Development Manager,3
Project Manager,3
Shift Supervisor,6
HR Manager,6
QA Manager,3
SEO Manager,3
HR Officer,6
HR Staff,6
Treasurer,6
QA Tester,2
SEO Specialist,3
Developer,1
FullStack PHP Developer,1
PHP Developer,1
.NET Developer,1
C# Developer,1
Ruby Developer,1
Ruby on Rails Developer,1
Python Developer,1
Python Django Developer,1
Java Developer,1
C++ Developer,1
Mobile Application Developer,1
IOS Developer,1
Android Developer,1
UX/UI Designer,1
Graphic Artist,1
Web Designer,1
Content Writer,4
Content Director,4 
Technical Writer,4
Utility,6
Shift Lead,1
Chief Success Officer,5
